HierarchicalClustering
…
dfs %>% arrange(-mean.cv.accuracy) %>% head(100)

## # A tibble: 100 x 7
## # Groups: shrinkage, interaction.depth, n.minobsinnode, n.trees [82]
##    shrinkage interaction.depth n.minobsinnode n.trees   rho mean.c~ se.cv~
##        <dbl>             <int>          <int>   <dbl> <dbl>   <dbl>  <dbl>
##  1    0.0100                 1              3     120 0.400   0.864 0.0328
##  2    0.0100                 1              3     200 0.400   0.858 0.0308
##  3    0.0100                 1              5     200 0.400   0.858 0.0319
##  4    0.0100                 1              5     240 0.400   0.858 0.0309
##  5    0.0100                 1              3     160 0.400   0.858 0.0318
##  6    0.0100                 1              5     160 0.400   0.857 0.0344
##  7    0.0100                 2              5     120 0.400   0.856 0.0316
##  8    0.0100                 3             10     400 0.400   0.856 0.0338
##  9    0.0100                 1             10     400 0.500   0.855 0.0359
## 10    0.0100                 1              3     280 0.400   0.855 0.0300
## # ... with 90 more rows
…
